DiscovR_15
…
Code

sniff_tib

# A tibble: 32 × 3
   dog_name entity       vocalisations
   <chr>    <fct>                <dbl>
 1 Milton   Alien                    8
 2 Milton   Human                    7
 3 Milton   Mannequin                1
 4 Milton   Shapeshifter             6
 5 Woofy    Alien                    9
 6 Woofy    Human                    5
 7 Woofy    Mannequin                2
 8 Woofy    Shapeshifter             5
 9 Ramsey   Alien                    6
10 Ramsey   Human                    2
# ℹ 22 more rows
…
The robust test concurs with the non-robust one in that overall the group means were not significantly different, \(F_t\)(2.31, 11.55) = 2.75, p = 0.10. For the post hoc tests we’re looking at whether the p-value is less than the value in the column p.crit. If it is then the test is significant and the sig column will read TRUE. However, if the p-value is greater than the value in the column p.crit (as it is for all of the tests here), then the test is not significant and the sig column will read FALSE. Unlike the non-robust tests these post hoc tests suggest no significant differences between any means. Again though, bare in mind that the sample size is tiny (N = 8).

Factorial Repeated Measures Design

The aliens, excited by humans’ apparent inability to train sniffer dogs to detect them, decided to move their invasion plan forward. Aliens are far too wedded to p-values in small samples. They decided that they could make themselves even harder to detect by fooling the sniffer dogs by masking their alien smell. After extensive research they agreed that the two most effective masking scents would be human pheromones (which they hoped would make them smell human-like) and fox-pheromones (because they are a powerful, distracting smell for dogs). The aliens started smearing themselves with humans and foxes and prepared to invade.

Meanwhile, the top-secret government agency for Training Extra-terrestrial Reptile Detection (TERD) had got wind of their plan and set about testing how effective it would be. They trained 50 sniffer dogs. During training, these dogs were rewarded for making vocalizations while sniffing alien space lizards. On the test trials, the 50 dogs were allowed to sniff 9 different entities for 1-minute each: 3 alien space lizards, 3 shapeshifting alien space lizard who had taken on humanoid form, and 3 humans. Within each type of entity, 1 had no masking scent, 1 was smothered in human pheromones and 1 wore fox pheromones. The number of vocalizations made during each 1-minute sniffing session was recorded.

View the data in scent_tib.

Code

scents_tib

# A tibble: 450 × 4
   dog_id entity       scent_mask vocalisations
   <chr>  <fct>        <fct>              <dbl>
 1 56f9p  Alien        Fox                    7
 2 56f9p  Alien        Human                  9
 3 56f9p  Alien        None                   8
 4 56f9p  Shapeshifter Fox                   11
 5 56f9p  Shapeshifter Human                  6
 6 56f9p  Shapeshifter None                   8
 7 56f9p  Human        Fox                    3
 8 56f9p  Human        Human                  3
 9 56f9p  Human        None                   3
10 2m89y  Alien        Fox                    8
# ℹ 440 more rows
…
