DiscovR_20
…
Andy discovered that to deliver presents Santa uses a large team of elves, and that at each house they usually consume treats. The treats might be Christmas pudding, or sometimes mulled wine. He also discovered that they consume different quantities. Sometimes nothing is left, but other times there might be 1, 2, 3 or even 4 pieces of pudding or glasses of mulled wine. The Elves transmitted a log file of 400 of the previous year’s deliveries. It was called santa_tib.

id: Name of the elf doing the delivery

quantity: How many treats the elf ate before attempting the delivery

treat: which kind of treats were consumed (Christmas pudding or Mulled wine)

delivered: were the presents delivered (Delivered or not delivered)

Code

santa_tib

# A tibble: 400 × 4
   id                            quantity treat       delivered    
   <chr>                            <dbl> <fct>       <fct>        
 1 Fankle the Determined                4 Mulled wine Not delivered
 2 Amber the Cuddle                     3 Mulled wine Not delivered
 3 Snorklum the Content                 3 Pudding     Delivered    
 4 Henri the Biddible                   0 Pudding     Delivered    
 5 Ainsley the Eigen vector             0 Mulled wine Delivered    
 6 Funnelcup the Iron maiden fan        1 Mulled wine Delivered    
 7 Ramsey the Surprised                 2 Pudding     Delivered    
 8 Bindlestiff the Surprised            3 Mulled wine Not delivered
 9 Lardy the Strong                     1 Pudding     Delivered    
10 Theo the Small                       1 Pudding     Delivered    
# ℹ 390 more rows
…
