Practical 1
…
Practical 1

    Author

             Ferdinand Edward Bitan 

Code

eddie_tib <- here::here("data/eddiefy.csv") |>
  readr::read_csv()
eddie_tib

# A tibble: 163 × 18
   artist_name album_name track_name     year danceability energy   key loudness
   <chr>       <chr>      <chr>         <dbl>        <dbl>  <dbl> <dbl>    <dbl>
 1 Iron Maiden Senjutsu   Senjutsu       2021        0.347  0.885     9    -6.12
 2 Iron Maiden Senjutsu   Stratego       2021        0.473  0.968     4    -7.30
 3 Iron Maiden Senjutsu   The Writing …  2021        0.402  0.912     2    -5.45
 4 Iron Maiden Senjutsu   Lost In A Lo…  2021        0.251  0.871     4    -6.41
 5 Iron Maiden Senjutsu   Days Of Futu…  2021        0.433  0.92      4    -4.74
 6 Iron Maiden Senjutsu   The Time Mac…  2021        0.297  0.889     9    -5.29
 7 Iron Maiden Senjutsu   Darkest Hour   2021        0.222  0.925     4    -5.94
 8 Iron Maiden Senjutsu   Death Of The…  2021        0.291  0.804     2    -5.81
 9 Iron Maiden Senjutsu   The Parchment  2021        0.149  0.924     4    -5.34
10 Iron Maiden Senjutsu   Hell On Earth  2021        0.298  0.842     4    -6.69
# ℹ 153 more rows
# ℹ 10 more variables: mode <dbl>, speechiness <dbl>, acousticness <dbl>,
#   instrumentalness <dbl>, liveness <dbl>, valence <dbl>, tempo <dbl>,
#   time_signature <dbl>, song_duration <chr>, song_ms <dbl>
…
