DiscovR_06
…
We need to convert the ticket number to a character variable (so R doesn't confuse it for a number) and convert gender to a categorical variable and set the order of factor levels to match the data in the R package. To do all of this, execute the following code:

Code

download_tib <- download_tib |> 
  dplyr::mutate(
    ticket_no = as.character(ticket_no),
    gender = forcats::as_factor(gender) |> 
      forcats::fct_relevel("Male", "Female", "Non-binary")
  )

download_tib

# A tibble: 810 × 5
   ticket_no gender day_1 day_2 day_3
   <chr>     <fct>  <dbl> <dbl> <dbl>
 1 2111      Male    2.64  1.35  1.61
 2 2229      Female  0.97  1.41  0.29
 3 2338      Male    0.84 NA    NA   
 4 2384      Female  3.03 NA    NA   
 5 2401      Female  0.88  0.08 NA   
 6 2405      Male    0.85 NA    NA   
 7 2467      Female  1.56 NA    NA   
 8 2478      Female  3.02 NA    NA   
 9 2490      Male    2.29 NA    NA   
10 2504      Female  1.11  0.44  0.55
# ℹ 800 more rows
…
In which tibble is the name of the messy tibble that you want to make tidy and column_names is a list of columns that you want to restructure into rows. The columns to be converted into rows have a name and values within each column associated with each case/entity. During restructuring, these properties will be split into two columns/variables, one containing the value for a particular case and one containing the name of the original column from which that value came. We use names_to to specify a name for the new variable that contains the names of the original columns, and value_to to specify a name for the new variable that will contain the values.

Within the download data we have three columns/variables (day_1, day_2 and day_3) that we want to restructure into rows. We can specify these variables using day_1:day_3 or c(day_1, day_2, day_3). The scores in each of these columns represent hygiene scores, so we might use hygiene as the name for the variable created to contain the values after restructuring. Similarly, the columns we're transforming all represent different days at the festival so we might use day as the name the variable created to contain these column names. The resulting code would be:

Code

download_tidy_tib <- download_tib |> 
  tidyr::pivot_longer(
  cols = day_1:day_3,
  names_to = "day",
  values_to = "hygiene"
)
download_tidy_tib

# A tibble: 2,430 × 4
   ticket_no gender day   hygiene
   <chr>     <fct>  <chr>   <dbl>
 1 2111      Male   day_1    2.64
 2 2111      Male   day_2    1.35
 3 2111      Male   day_3    1.61
 4 2229      Female day_1    0.97
 5 2229      Female day_2    1.41
 6 2229      Female day_3    0.29
 7 2338      Male   day_1    0.84
 8 2338      Male   day_2   NA   
 9 2338      Male   day_3   NA   
10 2384      Female day_1    3.03
# ℹ 2,420 more rows
…
When used within a pipe the stuff coming through the pipe is assigned to the string argument so we don't need to specify it explicitly, we set pattern to "_" (it will find the underscore), and we set replacement to " " (it replaces the underscore with a space). The result is stringr::str_replace("_", " ").

Code

download_tidy_tib <- download_tidy_tib |> 
  dplyr::mutate(
    day = stringr::str_to_sentence(day) |> 
      stringr:: str_replace("_", " ")
  )
download_tidy_tib

# A tibble: 2,430 × 4
   ticket_no gender day   hygiene
   <chr>     <fct>  <chr>   <dbl>
 1 2111      Male   Day 1    2.64
 2 2111      Male   Day 2    1.35
 3 2111      Male   Day 3    1.61
 4 2229      Female Day 1    0.97
 5 2229      Female Day 2    1.41
 6 2229      Female Day 3    0.29
 7 2338      Male   Day 1    0.84
 8 2338      Male   Day 2   NA   
 9 2338      Male   Day 3   NA   
10 2384      Female Day 1    3.03
# ℹ 2,420 more rows
…
Let's return the tidy version of the download data to messy format. You use id_cols to define any variables that you won't want to be included in the restructuring (in this case ticket_no and gender). We use names_from to tell the function from where to take the column names (in the tidy data column names are stored in the variable day) and values_from to tell the function from where to get the scores (in the tidy data values are in the variable hygiene).

Code

download_tib <- download_tidy_tib |> 
  tidyr::pivot_wider(
    id_cols = c(ticket_no, gender),
    names_from = "day",
    values_from = "hygiene"
  )
download_tib

# A tibble: 810 × 5
   ticket_no gender `Day 1` `Day 2` `Day 3`
   <chr>     <fct>    <dbl>   <dbl>   <dbl>
 1 2111      Male      2.64    1.35    1.61
 2 2229      Female    0.97    1.41    0.29
 3 2338      Male      0.84   NA      NA   
 4 2384      Female    3.03   NA      NA   
 5 2401      Female    0.88    0.08   NA   
 6 2405      Male      0.85   NA      NA   
 7 2467      Female    1.56   NA      NA   
 8 2478      Female    3.02   NA      NA   
 9 2490      Male      2.29   NA      NA   
10 2504      Female    1.11    0.44    0.55
# ℹ 800 more rows
…
Basically we place str_replace() into something called an anonymous function (aka a lambda function). Lambda functions are explained in the book but, optionally, read the information box. The code above takes each column in term, finds the text pattern 'Day' and replaces it with 'day_'.

Code

download_tib <- download_tib |> 
  dplyr::rename_with(.cols = starts_with("Day"),
                     .fn = \(column){stringr::str_replace(string = column,
                                                          "Day ",
                                                          "day_")})

download_tib

# A tibble: 810 × 5
   ticket_no gender day_1 day_2 day_3
   <chr>     <fct>  <dbl> <dbl> <dbl>
 1 2111      Male    2.64  1.35  1.61
 2 2229      Female  0.97  1.41  0.29
 3 2338      Male    0.84 NA    NA   
 4 2384      Female  3.03 NA    NA   
 5 2401      Female  0.88  0.08 NA   
 6 2405      Male    0.85 NA    NA   
 7 2467      Female  1.56 NA    NA   
 8 2478      Female  3.02 NA    NA   
 9 2490      Male    2.29 NA    NA   
10 2504      Female  1.11  0.44  0.55
# ℹ 800 more rows
…
It turns out that the person with ticket number 4158 has a hygiene score of 20.02, which is probably a mistyping of 2.02. We'd have to go back to the raw data and check. We'll assume we've checked the raw data and this score should be 2.02, we need to replace the value 20.02 with the value 2.02 before continuing. We can do this using the dplyr::recode() function.

Code

download_tib <- download_tib |> 
  dplyr::mutate(
    day_1 = dplyr::recode(day_1, "20.02" = 2.02)
  )
download_tib

# A tibble: 810 × 5
   ticket_no gender day_1 day_2 day_3
   <chr>     <fct>  <dbl> <dbl> <dbl>
 1 2111      Male    2.64  1.35  1.61
 2 2229      Female  0.97  1.41  0.29
 3 2338      Male    0.84 NA    NA   
 4 2384      Female  3.03 NA    NA   
 5 2401      Female  0.88  0.08 NA   
 6 2405      Male    0.85 NA    NA   
 7 2467      Female  1.56 NA    NA   
 8 2478      Female  3.02 NA    NA   
 9 2490      Male    2.29 NA    NA   
10 2504      Female  1.11  0.44  0.55
# ℹ 800 more rows

Having corrected the mis-entered data point in the wide data file (download_tib), we would need to recreate the long version of the data including the corrected score using

Code

download_tidy_tib <- download_tib |> 
  tidyr::pivot_longer(
    cols = day_1:day_3,
    names_to = "day",
    values_to = "hygiene",
  )
download_tidy_tib

# A tibble: 2,430 × 4
   ticket_no gender day   hygiene
   <chr>     <fct>  <chr>   <dbl>
 1 2111      Male   day_1    2.64
 2 2111      Male   day_2    1.35
 3 2111      Male   day_3    1.61
 4 2229      Female day_1    0.97
 5 2229      Female day_2    1.41
 6 2229      Female day_3    0.29
 7 2338      Male   day_1    0.84
 8 2338      Male   day_2   NA   
 9 2338      Male   day_3   NA   
10 2384      Female day_1    3.03
# ℹ 2,420 more rows
…
Any score can be converted to a z-score, which has known distributional properties. This section looks at how to use these standardized scores to look for outliers. Everything in this section can be applied to model residuals too (see discovr_08). To standardize raw scores we take the score, subtract from it the mean of all scores and divide by the standard deviation of all scores.

We can convert scores to z-scores by using mutate() alongside functions that compute the mean and standard deviation.

Code

download_tib <- download_tib |> 
  dplyr::mutate(
    zday_1 = (day_1 - mean(day_1, na.rm = T))/sd(day_1, na.rm = T),
    zday_2 = (day_2 - mean(day_2, na.rm = T))/sd(day_2, na.rm = T),
    zday_3 = (day_3 - mean(day_3, na.rm = T))/sd(day_3, na.rm = T)
  )
download_tib

# A tibble: 810 × 8
   ticket_no gender day_1 day_2 day_3 zday_1 zday_2 zday_3
   <chr>     <fct>  <dbl> <dbl> <dbl>  <dbl>  <dbl>  <dbl>
 1 2111      Male    2.64  1.35  1.61  1.25   0.540  0.892
 2 2229      Female  0.97  1.41  0.29 -1.16   0.623 -0.967
 3 2338      Male    0.84 NA    NA    -1.34  NA     NA    
 4 2384      Female  3.03 NA    NA     1.82  NA     NA    
 5 2401      Female  0.88  0.08 NA    -1.28  -1.22  NA    
 6 2405      Male    0.85 NA    NA    -1.33  NA     NA    
 7 2467      Female  1.56 NA    NA    -0.304 NA     NA    
 8 2478      Female  3.02 NA    NA     1.80  NA     NA    
 9 2490      Male    2.29 NA    NA     0.748 NA     NA    
10 2504      Female  1.11  0.44  0.55 -0.953 -0.723 -0.600
# ℹ 800 more rows
…
Code

download_tib <- download_tib |> 
  dplyr::mutate(
    dplyr::across(.cols = day_1:day_3,
                  .fn = \(column) make_z(column),
                  .names = "z{.col}")
  )
download_tib

# A tibble: 810 × 8
   ticket_no gender day_1 day_2 day_3 zday_1 zday_2 zday_3
   <chr>     <fct>  <dbl> <dbl> <dbl>  <dbl>  <dbl>  <dbl>
 1 2111      Male    2.64  1.35  1.61  1.25   0.540  0.892
 2 2229      Female  0.97  1.41  0.29 -1.16   0.623 -0.967
 3 2338      Male    0.84 NA    NA    -1.34  NA     NA    
 4 2384      Female  3.03 NA    NA     1.82  NA     NA    
 5 2401      Female  0.88  0.08 NA    -1.28  -1.22  NA    
 6 2405      Male    0.85 NA    NA    -1.33  NA     NA    
 7 2467      Female  1.56 NA    NA    -0.304 NA     NA    
 8 2478      Female  3.02 NA    NA     1.80  NA     NA    
 9 2490      Male    2.29 NA    NA     0.748 NA     NA    
10 2504      Female  1.11  0.44  0.55 -0.953 -0.723 -0.600
# ℹ 800 more rows
…
If we want to see only cases with a z-score for day_1 less than −1.96 or greater than 1.96 we could execute:

download_tib |>
dplyr::filter(abs(zday_1) >= 1.96) |>
dplyr::arrange(zday_1)

This code pipes the data into filter() where we set the criteria that the absolute value of the variable zday_1 must be greater or equal to 1.96 (that's what abs(zday_1) >= 1.96 does). Finally (and optionally) we pipe the tibble into arrange() to sort it by zday_1, so that the resulting table will list cases from the smallest standardized residual to the largest.

Code

download_tib |> 
  dplyr::filter(abs(zday_1) >= 1.96) |> 
  dplyr::arrange(zday_1)

# A tibble: 39 × 8
   ticket_no gender     day_1 day_2 day_3 zday_1 zday_2 zday_3
   <chr>     <fct>      <dbl> <dbl> <dbl>  <dbl>  <dbl>  <dbl>
 1 4107      Female      0.02 NA       NA  -2.52 NA         NA
 2 3540      Non-binary  0.05 NA       NA  -2.48 NA         NA
 3 2662      Female      0.11 NA       NA  -2.40 NA         NA
 4 3030      Non-binary  0.11  0.29    NA  -2.40 -0.931     NA
 5 3511      Female      0.23  0.14    NA  -2.22 -1.14      NA
 6 4011      Female      0.23  0.84    NA  -2.22 -0.168     NA
 7 2606      Non-binary  0.26 NA       NA  -2.18 NA         NA
 8 4697      Male        0.29  0.14    NA  -2.14 -1.14      NA
 9 3587      Male        0.3  NA       NA  -2.12 NA         NA
10 3260      Male        0.32 NA       NA  -2.09 NA         NA
# ℹ 29 more rows
…
