DiscovR_15_Growth
…
id: The zombie’s ID

intervention: factor that codes which arm of the trial the participant was randomized to (wait list or gene therapy)}

time: factor that expresses when resemblance was measured as Baseline, 1 month follow-up, 6-month follow up, and 12-month follow-up.

resemblance: How closely their face resembled their pre-zombified state (100% = the participants face is exactly like their original face, 0% the person bears no resemblance to their pre-zombified face).

time_num: integer expressing the time in months from baseline (0, 1, 6, 12).

Code

rehab_growth_tib

# A tibble: 564 × 5
   id    intervention time     resemblance time_num
   <chr> <fct>        <fct>          <dbl>    <dbl>
 1 tp52h Gene therapy Baseline          59        0
 2 bm95v Gene therapy Baseline          31        0
 3 lj12s Gene therapy Baseline          35        0
 4 jb38i Wait list    Baseline          54        0
 5 xt29u Wait list    Baseline          49        0
 6 ep42w Gene therapy Baseline          49        0
 7 po11r Wait list    Baseline          36        0
 8 nz76p Gene therapy Baseline          48        0
 9 xk33a Gene therapy Baseline          50        0
10 mp79j Gene therapy Baseline          48        0
# ℹ 554 more rows
…
