DiscovR_12
…
Code

pupluv_tib

# A tibble: 30 × 4
   id     dose       happiness puppy_love
   <chr>  <fct>          <dbl>      <dbl>
 1 72kfu0 No puppies         3          4
 2 2l47nl No puppies         2          1
 3 uev2x2 No puppies         5          5
 4 fbnym1 No puppies         2          1
 5 i3d8d1 No puppies         2          2
 6 lg6i36 No puppies         2          2
 7 22o7c9 No puppies         7          7
 8 5223ie No puppies         2          4
 9 v596m4 No puppies         4          5
10 w36156 15 mins            7          5
# ℹ 20 more rows
…
