DiscovR_14
…
base_qol: quality of life before cosmetic surgery.

days: The number of days after surgery that post-surgery quality of life was measured.

clinic: which of 21 clinics the person attended to have their surgery.

bdi: This variable measures levels of depression using the Beck Depression Inventory (BDI).

reason: This variable specifies whether the person had surgery purely to change their appearance or because of a physical reason.

Code

cosmetic_tib

# A tibble: 1,576 × 7
   id    post_qol base_qol  days clinic      bdi reason           
   <chr>    <dbl>    <dbl> <dbl> <fct>     <dbl> <fct>            
 1 qx069       71       56   342 Clinic 5     32 Physical reason  
 2 v3rjc       30       39   349 Clinic 9     19 Physical reason  
 3 33ju1       42       33   208 Clinic 20     7 Change appearance
 4 5ydxd       38       34   242 Clinic 11    30 Change appearance
 5 i6p75       69       52   361 Clinic 12    19 Change appearance
 6 svsuy       53       47    41 Clinic 10    24 Physical reason  
 7 27xby       49       40   131 Clinic 9     15 Change appearance
 8 dcv37       50       28   358 Clinic 6     16 Change appearance
 9 4g46d       28       48    56 Clinic 10    29 Physical reason  
10 j060r       41       39    71 Clinic 17    10 Physical reason  
# ℹ 1,566 more rows
…
Let’s take stock of what you have created. You should see a tibble with 20 rows and two columns. The first column lists the clinics (in order because we ordered them) and the second column is labelled data and each row says <tibble>. This is because the nest() function has nested the data within each clinic. If we were to inspect the cell in the first row of the column labelled data we would find that it contains the clinic 1 data in a tibble. So, we have a tibble within a tibble. You can see this by executing the code in the box below, which instructs R to show us the first item ([[1]]) in the variable data within the object clinic_lms. Change the number in the square bracket to view a different row, for example clinic_lms$data[[9]] will show the 9th item in the variable data within the object clinic_lms, which you’ll see is the data for clinic 9.

Code

clinic_lms$data[[1]]  

# A tibble: 32 × 6
   id    post_qol base_qol  days   bdi reason           
   <chr>    <dbl>    <dbl> <dbl> <dbl> <fct>            
 1 7q5kx       42       55   237     7 Change appearance
 2 886me        8       35   153     7 Change appearance
 3 u98le       22       55   134    14 Physical reason  
 4 mx9p9       40       53    68    11 Physical reason  
 5 2q844       13       46    65    14 Physical reason  
 6 vw5s5       27       44   302     7 Change appearance
 7 8epbd       24       42   106    10 Change appearance
 8 4ns4e       29       57   271    29 Change appearance
 9 591p2       25       44    13    20 Physical reason  
10 3ky17       41       50   203    13 Change appearance
# ℹ 22 more rows
…
models_tib

This code creates and displays an object called models_tib, that takes the clinic_lms object that we just created, ignores the variables data and model, and then unnests the data by the variable coefs, which expands the tibbles of parameter estimates stored in coefs into rows. In other words, instead of each clinic occupying a single row in the tibble it will now occupy 5 rows (one for the intercept and one for each of the 4 predictors).

Code

models_tib <- clinic_lms  |>
  dplyr::select(-c(data, model)) |> 
  tidyr::unnest(coefs)
models_tib

# A tibble: 100 × 8
# Groups:   clinic [20]
   clinic   term        estimate std.error statistic  p.value conf.low conf.high
   <fct>    <chr>          <dbl>     <dbl>     <dbl>    <dbl>    <dbl>     <dbl>
 1 Clinic 1 (Intercept) -2.21e+1    9.54      -2.32  2.83e- 2 -4.17e+1   -2.53  
 2 Clinic 1 days         5.49e-2    0.0229     2.40  2.38e- 2  7.88e-3    0.102 
 3 Clinic 1 reasonPhys…  2.70e+0    6.54       0.413 6.83e- 1 -1.07e+1   16.1   
 4 Clinic 1 base_qol     7.84e-1    0.176      4.44  1.36e- 4  4.22e-1    1.15  
 5 Clinic 1 days:reaso…  8.69e-3    0.0315     0.275 7.85e- 1 -5.60e-2    0.0734
 6 Clinic 2 (Intercept)  5.80e+1    5.14      11.3   1.13e-16  4.77e+1   68.2   
 7 Clinic 2 days        -8.78e-2    0.0109    -8.07  3.04e-11 -1.10e-1   -0.0660
 8 Clinic 2 reasonPhys…  2.84e+0    3.95       0.718 4.76e- 1 -5.06e+0   10.7   
 9 Clinic 2 base_qol     3.14e-1    0.114      2.75  7.78e- 3  8.57e-2    0.541 
10 Clinic 2 days:reaso… -1.39e-2    0.0174    -0.795 4.29e- 1 -4.88e-2    0.0210
# ℹ 90 more rows
…
Although the cockroach of convergence is undoubtedly evil, deep inside a slither of good remains and he offers us vital clue by asking Rescale variables? What does that mean? Our outcome variable (post_qol) and one of the predictors (pre_qol) can range from 0 to 100, the reason for surgery can range from 0 (change appearance) to 1 (physical reason) but the predictor days varies from 0 to 400. Our model has variables measured on very different scales. In particular, days is likely to yield a very small parameter. To see why, imagine we expect quality of life to increase by 10 units (a fairly big change on aa 100-point scale) over 400 days. This is a change of 0.027 per day. Remember that the parameter estimate for days is the change in quality of life for every extra day since surgery and so would also be 0.027 (a tiny value). The warning message is suggesting that if the variables were measured on more similar scales the model might converge.

The main problem is likely to be the variable days because it has a wide range (0 to 400). We have expressed the time since surgery in days, but this choice is arbitrary. We could have chosen hours, minutes, seconds, months, or years all of which are re-expressions of the same information. If we were to express the time since surgery in months rather than days the range of 0 to 400 days becomes 0 to 13 (approx.) months. This might help because the range has decreased and is more in line with the other variables in the model.

Create a variable called months in cosmetic_tib that expresses the days since surgery in months.

Code

cosmetic_tib <- cosmetic_tib |> 
  dplyr::mutate(
    months = days*12/365
  )
cosmetic_tib

# A tibble: 1,576 × 8
   id    post_qol base_qol  days clinic      bdi reason            months
   <chr>    <dbl>    <dbl> <dbl> <fct>     <dbl> <fct>              <dbl>
 1 qx069       71       56   342 Clinic 5     32 Physical reason    11.2 
 2 v3rjc       30       39   349 Clinic 9     19 Physical reason    11.5 
 3 33ju1       42       33   208 Clinic 20     7 Change appearance   6.84
 4 5ydxd       38       34   242 Clinic 11    30 Change appearance   7.96
 5 i6p75       69       52   361 Clinic 12    19 Change appearance  11.9 
 6 svsuy       53       47    41 Clinic 10    24 Physical reason     1.35
 7 27xby       49       40   131 Clinic 9     15 Change appearance   4.31
 8 dcv37       50       28   358 Clinic 6     16 Change appearance  11.8 
 9 4g46d       28       48    56 Clinic 10    29 Physical reason     1.84
10 j060r       41       39    71 Clinic 17    10 Physical reason     2.33
# ℹ 1,566 more rows
…
