DiscovR_08
…
album_full_rsd <- broom::augment(album_full_lm, data = album_tib)

Or in a pipe:

album_full_rsd <- album_full_lm |>    broom::augment(data = album_tib)

Code

album_full_rsd <- album_full_lm |> 
  broom::augment() |> 
  tibble::rowid_to_column(var = "case_no")
album_full_rsd

# A tibble: 200 × 11
   case_no sales adverts airplay image .fitted  .resid    .hat .sigma   .cooksd
     <int> <dbl>   <dbl>   <dbl> <dbl>   <dbl>   <dbl>   <dbl>  <dbl>     <dbl>
 1       1   330    10.3      43    10   230.   100.   0.0472    46.6 0.0587   
 2       2   120   986.       28     7   229.  -109.   0.00801   46.6 0.0109   
 3       3   360  1446.       35     7   292.    68.4  0.0207    46.9 0.0114   
 4       4   270  1188.       33     7   263.     7.02 0.0126    47.2 0.0000717
 5       5   220   575.       44     5   226.    -5.75 0.0261    47.2 0.000103 
 6       6   170   569.       19     5   141.    28.9  0.0142    47.2 0.00138  
 7       7    70   472.       20     1    91.9  -21.9  0.0910    47.2 0.00594  
 8       8   210   537.       22     9   193.    17.1  0.0209    47.2 0.000723 
 9       9   200   514.       21     7   165.    34.7  0.00691   47.1 0.000949 
10      10   300   174.       40     7   200.    99.5  0.0154    46.7 0.0178   
# ℹ 190 more rows
# ℹ 1 more variable: .std.resid <dbl>
…
I’m struggling to care about this stuff.

No, the appropriate proportion of cases have standardized residuals in the expected range and no case has a value grossly exceeding 3.

Yes, there is a case with a standardized residual of 3.061.

We can do something similar to look at Cook’s distance. We could either filter the tibble to look at cases with Cook’s distance greater than 1, or simply sort the tibble in descending order using arrange() which will show us the cases with the largest Cook’s distances. Again, we could use select() so that we see only the Cook’s values and case numbers.

Code

album_full_rsd |> 
  dplyr::arrange(desc(.cooksd)) |> 
  dplyr::select(case_no, .cooksd)

# A tibble: 200 × 2
   case_no .cooksd
     <int>   <dbl>
 1     164  0.0708
 2       1  0.0587
 3     169  0.0509
 4      55  0.0404
 5      52  0.0332
 6     100  0.0314
 7     119  0.0308
 8      99  0.0281
 9     200  0.0251
10      47  0.0241
# ℹ 190 more rows
…
soc_anx_rsd |> 
  dplyr::filter(abs(.std.resid) >= 3) |> 
  dplyr::select(case_no, .std.resid, .resid) |> 
  dplyr::arrange(.std.resid)

# A tibble: 0 × 3
# ℹ 3 variables: case_no <int>, .std.resid <dbl>, .resid <dbl>

Code

soc_anx_rsd |> 
  dplyr::arrange(desc(.cooksd)) |> 
  dplyr::select(case_no, .cooksd)

# A tibble: 134 × 2
   case_no .cooksd
     <int>   <dbl>
 1       8  0.0724
 2      45  0.0497
 3      14  0.0397
 4      40  0.0373
 5      16  0.0330
 6      87  0.0304
 7     127  0.0289
 8       1  0.0285
 9       4  0.0274
10      12  0.0268
# ℹ 124 more rows
…
